4 Data visualization | My Little Handbook
…
## # A tibble: 3 × 3
##     cyl avg_US avg_metric
##   <dbl>  <dbl>      <dbl>
## 1     4   26.7      11.2 
## 2     6   19.7       8.29
## 3     8   15.1       6.34

mpg %>% 
  group_by(manufacturer, year) %>% 
  summarise_at(vars(cty, hwy), mean)

## # A tibble: 30 × 4
## # Groups:   manufacturer [15]
##    manufacturer  year   cty   hwy
##    <chr>        <int> <dbl> <dbl>
##  1 audi          1999  17.1  26.1
##  2 audi          2008  18.1  26.8
##  3 chevrolet     1999  15.1  21.6
##  4 chevrolet     2008  14.9  22.1
##  5 dodge         1999  13.4  18.4
##  6 dodge         2008  13.0  17.6
##  7 ford          1999  13.9  18.6
##  8 ford          2008  14.1  20.5
##  9 honda         1999  24.8  31.6
## 10 honda         2008  24    33.8
## # … with 20 more rows
…
