1 Data Wrangling | My Little Handbook
…
## # A tibble: 6 × 5
##      id  year   age drug   se_headache
##   <int> <int> <int> <chr>        <int>
## 1     1     0    65 Active           0
## 2     1     1    65 Active           1
## 3     1     2    65 Active           1
## 4     2     0    49 Active           1
## 5     2     1    49 Active           0
## 6     2     2    49 Active           1

# 
drug_trial %>%
  mutate(complete = c(1))

## # A tibble: 60 × 6
##       id  year   age drug    se_headache complete
##    <int> <int> <int> <chr>         <int>    <dbl>
##  1     1     0    65 Active            0        1
##  2     1     1    65 Active            1        1
##  3     1     2    65 Active            1        1
##  4     2     0    49 Active            1        1
##  5     2     1    49 Active            0        1
##  6     2     2    49 Active            1        1
##  7     3     0    48 Placebo           0        1
##  8     3     1    48 Placebo           0        1
##  9     3     2    48 Placebo           0        1
## 10     4     0    37 Placebo           0        1
## # ℹ 50 more rows
…
## 
##  No Yes 
##  40  20

table (drug_trial$mi_f_reverse)

## 
## yes  no 
##  20  40

drug_trial %>% 
  rowwise() %>% 
  mutate(any_se_year = sum(se_headache, year) > 0)

## # A tibble: 60 × 9
## # Rowwise: 
##       id  year   age drug    se_headache mi_f  mi_f_reverse    mi any_se_year
##    <int> <int> <int> <chr>         <int> <fct> <fct>        <dbl> <lgl>      
##  1     1     0    65 Active            0 No    no               2 FALSE      
##  2     1     1    65 Active            1 Yes   yes              1 TRUE       
##  3     1     2    65 Active            1 Yes   yes              1 TRUE       
##  4     2     0    49 Active            1 Yes   yes              1 TRUE       
##  5     2     1    49 Active            0 No    no               2 TRUE       
##  6     2     2    49 Active            1 Yes   yes              1 TRUE       
##  7     3     0    48 Placebo           0 No    no               2 FALSE      
##  8     3     1    48 Placebo           0 No    no               2 TRUE       
##  9     3     2    48 Placebo           0 No    no               2 TRUE       
## 10     4     0    37 Placebo           0 No    no               2 FALSE      
## # ℹ 50 more rows

what is the difference of rowwise and group_by

drug_trial %>%  group_by(id) %>% 
  mutate(any_se_year = sum(se_headache, year)  )

## # A tibble: 60 × 9
## # Groups:   id [20]
##       id  year   age drug    se_headache mi_f  mi_f_reverse    mi any_se_year
##    <int> <int> <int> <chr>         <int> <fct> <fct>        <dbl>       <int>
##  1     1     0    65 Active            0 No    no               2           5
##  2     1     1    65 Active            1 Yes   yes              1           5
##  3     1     2    65 Active            1 Yes   yes              1           5
##  4     2     0    49 Active            1 Yes   yes              1           5
##  5     2     1    49 Active            0 No    no               2           5
##  6     2     2    49 Active            1 Yes   yes              1           5
##  7     3     0    48 Placebo           0 No    no               2           3
##  8     3     1    48 Placebo           0 No    no               2           3
##  9     3     2    48 Placebo           0 No    no               2           3
## 10     4     0    37 Placebo           0 No    no               2           3
## # ℹ 50 more rows

drug_trial %>% 
  rowwise() %>% 
  mutate(any_se_year = sum(se_headache, year)  )

## # A tibble: 60 × 9
## # Rowwise: 
##       id  year   age drug    se_headache mi_f  mi_f_reverse    mi any_se_year
##    <int> <int> <int> <chr>         <int> <fct> <fct>        <dbl>       <int>
##  1     1     0    65 Active            0 No    no               2           0
##  2     1     1    65 Active            1 Yes   yes              1           2
##  3     1     2    65 Active            1 Yes   yes              1           3
##  4     2     0    49 Active            1 Yes   yes              1           1
##  5     2     1    49 Active            0 No    no               2           1
##  6     2     2    49 Active            1 Yes   yes              1           3
##  7     3     0    48 Placebo           0 No    no               2           0
##  8     3     1    48 Placebo           0 No    no               2           1
##  9     3     2    48 Placebo           0 No    no               2           2
## 10     4     0    37 Placebo           0 No    no               2           0
## # ℹ 50 more rows

starts_with and end_with

drug_trial_sub <- drug_trial %>% 
  select(id, year, starts_with("se")) %>% 
  print()

## # A tibble: 60 × 3
##       id  year se_headache
##    <int> <int>       <int>
##  1     1     0           0
##  2     1     1           1
##  3     1     2           1
##  4     2     0           1
##  5     2     1           0
##  6     2     2           1
##  7     3     0           0
##  8     3     1           0
##  9     3     2           0
## 10     4     0           0
## # ℹ 50 more rows
…
iris %>%
pivot_wider(  names_from=Species, values_from= c(Sepal.Length))

## Warning: Values from `Sepal.Length` are not uniquely identified; output will contain
## list-cols.
## • Use `values_fn = list` to suppress this warning.
## • Use `values_fn = {summary_fun}` to summarise duplicates.
## • Use the following dplyr code to identify duplicates.
##   {data} %>%
##   dplyr::group_by(Sepal.Width, Petal.Length, Petal.Width, Species) %>%
##   dplyr::summarise(n = dplyr::n(), .groups = "drop") %>%
##   dplyr::filter(n > 1L)

## # A tibble: 143 × 6
##    Sepal.Width Petal.Length Petal.Width setosa    versicolor virginica
##          <dbl>        <dbl>       <dbl> <list>    <list>     <list>   
##  1         3.5          1.4         0.2 <dbl [1]> <NULL>     <NULL>   
##  2         3            1.4         0.2 <dbl [1]> <NULL>     <NULL>   
##  3         3.2          1.3         0.2 <dbl [2]> <NULL>     <NULL>   
##  4         3.1          1.5         0.2 <dbl [2]> <NULL>     <NULL>   
##  5         3.6          1.4         0.2 <dbl [1]> <NULL>     <NULL>   
##  6         3.9          1.7         0.4 <dbl [1]> <NULL>     <NULL>   
##  7         3.4          1.4         0.3 <dbl [1]> <NULL>     <NULL>   
##  8         3.4          1.5         0.2 <dbl [2]> <NULL>     <NULL>   
##  9         2.9          1.4         0.2 <dbl [1]> <NULL>     <NULL>   
## 10         3.1          1.5         0.1 <dbl [1]> <NULL>     <NULL>   
## # ℹ 133 more rows

Create a unique identifier row for each name and then use pivot_wider

widedata <- iris %>%
  # create groups then assign unique identifier row number in each group
  group_by(Species) %>%
  mutate(row = row_number()) %>%
pivot_wider(names_from=Species, values_from= c(Petal.Length,Sepal.Length,Petal.Width,Sepal.Width))
widedata

## # A tibble: 50 × 13
##      row Petal.Length_setosa Petal.Length_versicolor Petal.Length_virginica
##    <int>               <dbl>                   <dbl>                  <dbl>
##  1     1                 1.4                     4.7                    6  
##  2     2                 1.4                     4.5                    5.1
##  3     3                 1.3                     4.9                    5.9
##  4     4                 1.5                     4                      5.6
##  5     5                 1.4                     4.6                    5.8
##  6     6                 1.7                     4.5                    6.6
##  7     7                 1.4                     4.7                    4.5
##  8     8                 1.5                     3.3                    6.3
##  9     9                 1.4                     4.6                    5.8
## 10    10                 1.5                     3.9                    6.1
## # ℹ 40 more rows
## # ℹ 9 more variables: Sepal.Length_setosa <dbl>, Sepal.Length_versicolor <dbl>,
## #   Sepal.Length_virginica <dbl>, Petal.Width_setosa <dbl>,
## #   Petal.Width_versicolor <dbl>, Petal.Width_virginica <dbl>,
## #   Sepal.Width_setosa <dbl>, Sepal.Width_versicolor <dbl>,
## #   Sepal.Width_virginica <dbl>

iris %>%
  group_by(Species) %>%
  mutate(row = row_number()) %>%
pivot_wider( names_from=Species, values_from= c(Petal.Length, Petal.Width))

## # A tibble: 150 × 9
##    Sepal.Length Sepal.Width   row Petal.Length_setosa Petal.Length_versicolor
##           <dbl>       <dbl> <int>               <dbl>                   <dbl>
##  1          5.1         3.5     1                 1.4                      NA
##  2          4.9         3       2                 1.4                      NA
##  3          4.7         3.2     3                 1.3                      NA
##  4          4.6         3.1     4                 1.5                      NA
##  5          5           3.6     5                 1.4                      NA
##  6          5.4         3.9     6                 1.7                      NA
##  7          4.6         3.4     7                 1.4                      NA
##  8          5           3.4     8                 1.5                      NA
##  9          4.4         2.9     9                 1.4                      NA
## 10          4.9         3.1    10                 1.5                      NA
## # ℹ 140 more rows
## # ℹ 4 more variables: Petal.Length_virginica <dbl>, Petal.Width_setosa <dbl>,
## #   Petal.Width_versicolor <dbl>, Petal.Width_virginica <dbl>

1.1.9 Pivot longer (wide to long)

why long format? there are many analytic techniques that require our data to be in this format, like plotting.

longdata = pivot_longer(widedata, -
                          c(  "row"   ,                  "Petal.Length_setosa" ,    "Petal.Length_versicolor",
  "Petal.Length_virginica",  "Sepal.Length_setosa"  ,   "Sepal.Length_versicolor",
  "Sepal.Length_virginica" , "Petal.Width_setosa"    ,  "Petal.Width_versicolor" ,
  "Petal.Width_virginica"    )        , names_to="Sepal.Width", values_to="Sepal.Width.value")
longdata

## # A tibble: 150 × 12
##      row Petal.Length_setosa Petal.Length_versicolor Petal.Length_virginica
##    <int>               <dbl>                   <dbl>                  <dbl>
##  1     1                 1.4                     4.7                    6  
##  2     1                 1.4                     4.7                    6  
##  3     1                 1.4                     4.7                    6  
##  4     2                 1.4                     4.5                    5.1
##  5     2                 1.4                     4.5                    5.1
##  6     2                 1.4                     4.5                    5.1
##  7     3                 1.3                     4.9                    5.9
##  8     3                 1.3                     4.9                    5.9
##  9     3                 1.3                     4.9                    5.9
## 10     4                 1.5                     4                      5.6
## # ℹ 140 more rows
## # ℹ 8 more variables: Sepal.Length_setosa <dbl>, Sepal.Length_versicolor <dbl>,
## #   Sepal.Length_virginica <dbl>, Petal.Width_setosa <dbl>,
## #   Petal.Width_versicolor <dbl>, Petal.Width_virginica <dbl>,
## #   Sepal.Width <chr>, Sepal.Width.value <dbl>
…
select which cols

babies %>% 
  pivot_longer(
    cols         = starts_with("weight"),  #which cols
    names_to     = "months",
    names_prefix = "weight_",  #remove prefix 
    values_to    = "weight"
  )

## # A tibble: 32 × 4
##       id sex   months weight
##    <int> <chr> <chr>   <dbl>
##  1  1001 F     3           9
##  2  1001 F     6          13
##  3  1001 F     9          16
##  4  1001 F     12         17
##  5  1002 F     3          11
##  6  1002 F     6          16
##  7  1002 F     9          17
##  8  1002 F     12         20
##  9  1003 M     3          17
## 10  1003 M     6          20
## # ℹ 22 more rows

using names_prefix argument

“it is a regular expression used to remove matching text from the start of each variable name.”

babies %>% 
  pivot_longer(
    cols         = starts_with("weight"),
    names_to     = "months",
    names_prefix = "\\w+_"
  )

## # A tibble: 32 × 4
##       id sex   months value
##    <int> <chr> <chr>  <dbl>
##  1  1001 F     3          9
##  2  1001 F     6         13
##  3  1001 F     9         16
##  4  1001 F     12        17
##  5  1002 F     3         11
##  6  1002 F     6         16
##  7  1002 F     9         17
##  8  1002 F     12        20
##  9  1003 M     3         17
## 10  1003 M     6         20
## # ℹ 22 more rows

using default argument

babies %>% 
  pivot_longer(
    cols = starts_with("weight")
  )

## # A tibble: 32 × 4
##       id sex   name      value
##    <int> <chr> <chr>     <dbl>
##  1  1001 F     weight_3      9
##  2  1001 F     weight_6     13
##  3  1001 F     weight_9     16
##  4  1001 F     weight_12    17
##  5  1002 F     weight_3     11
##  6  1002 F     weight_6     16
##  7  1002 F     weight_9     17
##  8  1002 F     weight_12    20
##  9  1003 M     weight_3     17
## 10  1003 M     weight_6     20
## # ℹ 22 more rows
…
pivoting multiple sets of cols

babies %>% 
  pivot_longer(
    cols      = c(-id, -sex),
    names_to  = c(".value", "months"),
    names_sep = "_"
  )

## # A tibble: 32 × 5
##       id sex   months weight length
##    <int> <chr> <chr>   <dbl>  <dbl>
##  1  1001 F     3           9     17
##  2  1001 F     6          13     18
##  3  1001 F     9          16     19
##  4  1001 F     12         17     21
##  5  1002 F     3          11     19
##  6  1002 F     6          16     21
##  7  1002 F     9          17     23
##  8  1002 F     12         20     23
##  9  1003 M     3          17     23
## 10  1003 M     6          20     27
## # ℹ 22 more rows

babies %>% 
  pivot_longer(
    cols      = c(-id, -sex),
    names_to  = "months",
    values_to = "weight"
  ) %>% 
  print()

## # A tibble: 64 × 4
##       id sex   months    weight
##    <int> <chr> <chr>      <dbl>
##  1  1001 F     weight_3       9
##  2  1001 F     weight_6      13
##  3  1001 F     weight_9      16
##  4  1001 F     weight_12     17
##  5  1001 F     length_3      17
##  6  1001 F     length_6      18
##  7  1001 F     length_9      19
##  8  1001 F     length_12     21
##  9  1002 F     weight_3      11
## 10  1002 F     weight_6      16
## # ℹ 54 more rows

using names_sep and .value argument

babies %>% 
  pivot_longer(
    cols      = c(-id, -sex),
    names_to  = c("measure", "months"),
    names_sep = "_"
  ) 

## # A tibble: 64 × 5
##       id sex   measure months value
##    <int> <chr> <chr>   <chr>  <dbl>
##  1  1001 F     weight  3          9
##  2  1001 F     weight  6         13
##  3  1001 F     weight  9         16
##  4  1001 F     weight  12        17
##  5  1001 F     length  3         17
##  6  1001 F     length  6         18
##  7  1001 F     length  9         19
##  8  1001 F     length  12        21
##  9  1002 F     weight  3         11
## 10  1002 F     weight  6         16
## # ℹ 54 more rows

.value tells pivot_longer() to create a new column for each unique character string that is in front of the underscore

babies %>% 
  pivot_longer(
    cols      = c(-id, -sex),
    names_to  = c( ".value","months" ), 
    names_sep = "_"
  )  

## # A tibble: 32 × 5
##       id sex   months weight length
##    <int> <chr> <chr>   <dbl>  <dbl>
##  1  1001 F     3           9     17
##  2  1001 F     6          13     18
##  3  1001 F     9          16     19
##  4  1001 F     12         17     21
##  5  1002 F     3          11     19
##  6  1002 F     6          16     21
##  7  1002 F     9          17     23
##  8  1002 F     12         20     23
##  9  1003 M     3          17     23
## 10  1003 M     6          20     27
## # ℹ 22 more rows
…
pivot_wider(longdata, names_from=Sepal.Width, values_from= c(Sepal.Width.value))

## # A tibble: 50 × 13
##      row Petal.Length_setosa Petal.Length_versicolor Petal.Length_virginica
##    <int>               <dbl>                   <dbl>                  <dbl>
##  1     1                 1.4                     4.7                    6  
##  2     2                 1.4                     4.5                    5.1
##  3     3                 1.3                     4.9                    5.9
##  4     4                 1.5                     4                      5.6
##  5     5                 1.4                     4.6                    5.8
##  6     6                 1.7                     4.5                    6.6
##  7     7                 1.4                     4.7                    4.5
##  8     8                 1.5                     3.3                    6.3
##  9     9                 1.4                     4.6                    5.8
## 10    10                 1.5                     3.9                    6.1
## # ℹ 40 more rows
## # ℹ 9 more variables: Sepal.Length_setosa <dbl>, Sepal.Length_versicolor <dbl>,
## #   Sepal.Length_virginica <dbl>, Petal.Width_setosa <dbl>,
## #   Petal.Width_versicolor <dbl>, Petal.Width_virginica <dbl>,
## #   Sepal.Width_setosa <dbl>, Sepal.Width_versicolor <dbl>,
## #   Sepal.Width_virginica <dbl>
…
##     n meas_p       sd
## 1 150  3.758 1.765298

1.2.3 Mutate new variables after grouping

iris %>% 
  group_by(Species) %>% 
mutate(n = n(), 
            meas_p = mean(Petal.Length), 
            sd = sd(Petal.Length))  

## # A tibble: 150 × 8
## # Groups:   Species [3]
##    Sepal.Length Sepal.Width Petal.Length Petal.Width Species     n meas_p    sd
##           <dbl>       <dbl>        <dbl>       <dbl> <fct>   <int>  <dbl> <dbl>
##  1          5.1         3.5          1.4         0.2 setosa     50   1.46 0.174
##  2          4.9         3            1.4         0.2 setosa     50   1.46 0.174
##  3          4.7         3.2          1.3         0.2 setosa     50   1.46 0.174
##  4          4.6         3.1          1.5         0.2 setosa     50   1.46 0.174
##  5          5           3.6          1.4         0.2 setosa     50   1.46 0.174
##  6          5.4         3.9          1.7         0.4 setosa     50   1.46 0.174
##  7          4.6         3.4          1.4         0.3 setosa     50   1.46 0.174
##  8          5           3.4          1.5         0.2 setosa     50   1.46 0.174
##  9          4.4         2.9          1.4         0.2 setosa     50   1.46 0.174
## 10          4.9         3.1          1.5         0.1 setosa     50   1.46 0.174
## # ℹ 140 more rows
…
